CheckIn2.qmd
…
Rows: 521 Columns: 15
── Column specification ────────────────────────────────────────────────────────
Delimiter: ","
chr (8): type, reporting category, standard, item description, discipline co...
dbl (7): year, number, pts, school%, state%, school_state_diff, grade_level

ℹ Use `spec()` to retrieve the full column specification for this data.
ℹ Specify the column types or set `show_col_types = FALSE` to quiet this message.

STE_DF

# A tibble: 521 × 14
   `item description`                     year number type  `reporting category`
   <chr>                                 <dbl> <fct>  <chr> <chr>               
 1 Describe why a material is an approp…  2019 1      SR    TE                  
 2 Describe a change to a particle mode…  2019 2      SR    PS                  
 3 Relate the amount of energy in a sei…  2019 3      SR    PS                  
 4 Analyze a model bridge to determine …  2019 4      CR    TE                  
 5 Interpret a model of two oceanic pla…  2019 5      CR    ES                  
 6 Complete a table showing the percent…  2019 6      SR    LS                  
 7 Evaluate two design solutions to det…  2019 7      SR    TE                  
 8 Describe the separation process for …  2019 8      SR    TE                  
 9 Analyze particle models of two gas s…  2019 9      SR    PS                  
10 Order a set of objects from least to…  2019 10     SR    PS                  
# ℹ 511 more rows
# ℹ 9 more variables: `discipline core idea` <chr>, standard <chr>,
#   `standard desc` <chr>, pts <dbl>, `school%` <dbl>, `state%` <dbl>,
#   school_state_diff <dbl>, grade_level <fct>, item_library_URL <chr>
…
#Math_G10_DF

Math_DF<-rbind(Math_G5_DF, Math_G6_DF)

Math_DF<-rbind(Math_DF, Math_G7_DF)

Math_DF<-rbind(Math_DF, Math_G8_DF)

Math_DF<-rbind(Math_DF, Math_G10_DF)

Math_DF

# A tibble: 1,010 × 13
   `item description`            year number type  `reporting category` standard
   <chr>                        <dbl> <fct>  <chr> <chr>                <chr>   
 1 Determine the coordinates o…  2019 1      SA    GE                   5.G.A.2 
 2 Match numerical expressions…  2019 2      SA    OA                   5.OA.A.2
 3 Solve a real-world problem …  2019 3      SA    NF                   5.NF.B.6
 4 Determine the volume of rig…  2019 4      CR    MD                   5.MD.C.4
 5 Round decimals to the neare…  2019 5      SA    NT                   5.NBT.A…
 6 Estimate the sum of two fra…  2019 6      SR    NF                   5.NF.A.2
 7 Determine the quotient of a…  2019 7      SA    NT                   5.NBT.A…
 8 Determine which statement d…  2019 8      SR    OA                   5.OA.B.3
 9 Create a fraction model to …  2019 9      SA    NF                   5.NF.B.4
10 Interpret coordinate values…  2019 10     SR    GE                   5.G.A.2 
# ℹ 1,000 more rows
# ℹ 7 more variables: `Standard Description` <chr>, pts <dbl>, `school%` <dbl>,
#   `state%` <dbl>, school_state_diff <dbl>, item_library_URL <chr>,
#   grade_level <fct>
…
