Tutorial_3
…
Note that, especially if you aren’t familiar, this is going to take some time to get used to and require some patience and practice. Take a moment now to install the SelectorGadget Chrome extension, then play around with SelectorGadget on the website until you can correctly identify “table”, the CSS selector that will let us pull the table.

# use SelectorGadget to find the info
css_selector <- "table"

Once we have the correct selector, we still need to (1) read the full html, (2) select out the portion that we are interested in, and (3) start formatting. That third step is really particularly easy when what we are pulling is already in tabular format. So, for example, here’s how we could read our table of data on famines into R.

# pull the table
url %>%
  read_html() %>%
  html_node(css = css_selector) %>%
  html_table()

# A tibble: 77 × 6
   Year      Country           Excess Mortality midpoin…¹ Excess Mortality low…²
   <chr>     <chr>             <chr>                      <chr>                 
 1 1846–52   Ireland           1,000,000                  1,000,000             
 2 1860-1    India             2,000,000                  2,000,000             
 3 1863-67   Cape Verde        30,000                     30,000                
 4 1866-7    India             961,043                    961,043               
 5 1868      Finland           100,000                    100,000               
 6 1868-70   India             1,500,000                  1,500,000             
 7 1870–1871 Persia (now Iran) 1,000,000                  500,000               
 8 1876–79   Brazil            750,000                    500,000               
 9 1876–79   India             7,176,346                  6,135,000             
10 1877–79   China             11,000,000                 9,000,000             
# ℹ 67 more rows
# ℹ abbreviated names: ¹​`Excess Mortality midpoint`, ²​`Excess Mortality lower`
# ℹ 2 more variables: `Excess Mortality upper` <chr>, Source <chr>
…
