Tutorial_1
…
data %>% 
  summarise(medianVotes = median(majVotes))

# A tibble: 1 × 1
  medianVotes
        <dbl>
1           7

For folks that have worked with R and the tidyverse before, that should look familiar. But for others, here’s the idea of what we did there. First, we take the dataset (data) and pass it to a function via the pipe operator (%>% or |>). Then, we call a group of potential summary functions through summarise(), create a new variable called meanVotes, and set it’s value equal to the mean() of majVotes via mean(majVotes). We can see from R that the mean is approximately 7.1 during the entire time period under study here. We are probably more interested, though, in how divisiveness changes. For instance, has the divisiveness of the Court increased or decreased over time? We can do that by just adding another line to what we had above, as so:

data %>% 
  group_by(term) %>% 
  summarise(medianVotes = median(majVotes))

# A tibble: 74 × 2
    term medianVotes
   <int>       <dbl>
 1  1946           7
 2  1947           7
 3  1948           6
 4  1949           7
 5  1950           6
 6  1951           7
 7  1952           7
 8  1953           7
 9  1954           7
10  1955           7
# ℹ 64 more rows
…
